Day, Part, Duration (ns), Allocs, Alloc. Bytes, Ops, Label
1, 1, 255961, 2008, 8032, 5000, Slice
1, 1, 921681, 6025, 128560, 2000, LinkedList
1, 2, 255492, 4016, 16064, 5000, Slice
1, 2, 7393438, 6025, 128560, 200, LinkedList